%YAML 1.1
%TAG !u! tag:unity3d.com,2011:
--- !u!29 &1
OcclusionCullingSettings:
  m_ObjectHideFlags: 0
  serializedVersion: 2
  m_OcclusionBakeSettings:
    smallestOccluder: 5
    smallestHole: 0.25
    backfaceThreshold: 100
  m_SceneGUID: 00000000000000000000000000000000
  m_OcclusionCullingData: {fileID: 0}
--- !u!104 &2
RenderSettings:
  m_ObjectHideFlags: 0
  serializedVersion: 9
  m_Fog: 0
  m_FogColor: {r: 0.5, g: 0.5, b: 0.5, a: 1}
  m_FogMode: 3
  m_FogDensity: 0.01
  m_LinearFogStart: 0
  m_LinearFogEnd: 300
  m_AmbientSkyColor: {r: 0.212, g: 0.227, b: 0.259, a: 1}
  m_AmbientEquatorColor: {r: 0.114, g: 0.125, b: 0.133, a: 1}
  m_AmbientGroundColor: {r: 0.047, g: 0.043, b: 0.035, a: 1}
  m_AmbientIntensity: 1
  m_AmbientMode: 0
  m_SubtractiveShadowColor: {r: 0.42, g: 0.478, b: 0.627, a: 1}
  m_SkyboxMaterial: {fileID: 10304, guid: 0000000000000000f000000000000000, type: 0}
  m_HaloStrength: 0.5
  m_FlareStrength: 1
  m_FlareFadeSpeed: 3
  m_HaloTexture: {fileID: 0}
  m_SpotCookie: {fileID: 10001, guid: 0000000000000000e000000000000000, type: 0}
  m_DefaultReflectionMode: 0
  m_DefaultReflectionResolution: 128
  m_ReflectionBounces: 1
  m_ReflectionIntensity: 1
  m_CustomReflection: {fileID: 0}
  m_Sun: {fileID: 705507994}
  m_UseRadianceAmbientProbe: 0
--- !u!157 &3
LightmapSettings:
  m_ObjectHideFlags: 0
  serializedVersion: 12
  m_GIWorkflowMode: 1
  m_GISettings:
    serializedVersion: 2
    m_BounceScale: 1
    m_IndirectOutputScale: 1
    m_AlbedoBoost: 1
    m_EnvironmentLightingMode: 0
    m_EnableBakedLightmaps: 1
    m_EnableRealtimeLightmaps: 0
  m_LightmapEditorSettings:
    serializedVersion: 12
    m_Resolution: 2
    m_BakeResolution: 40
    m_AtlasSize: 1024
    m_AO: 0
    m_AOMaxDistance: 1
    m_CompAOExponent: 1
    m_CompAOExponentDirect: 0
    m_ExtractAmbientOcclusion: 0
    m_Padding: 2
    m_LightmapParameters: {fileID: 0}
    m_LightmapsBakeMode: 1
    m_TextureCompression: 1
    m_FinalGather: 0
    m_FinalGatherFiltering: 1
    m_FinalGatherRayCount: 256
    m_ReflectionCompression: 2
    m_MixedBakeMode: 2
    m_BakeBackend: 1
    m_PVRSampling: 1
    m_PVRDirectSampleCount: 32
    m_PVRSampleCount: 500
    m_PVRBounces: 2
    m_PVREnvironmentSampleCount: 500
    m_PVREnvironmentReferencePointCount: 2048
    m_PVRFilteringMode: 2
    m_PVRDenoiserTypeDirect: 0
    m_PVRDenoiserTypeIndirect: 0
    m_PVRDenoiserTypeAO: 0
    m_PVRFilterTypeDirect: 0
    m_PVRFilterTypeIndirect: 0
    m_PVRFilterTypeAO: 0
    m_PVREnvironmentMIS: 0
    m_PVRCulling: 1
    m_PVRFilteringGaussRadiusDirect: 1
    m_PVRFilteringGaussRadiusIndirect: 5
    m_PVRFilteringGaussRadiusAO: 2
    m_PVRFilteringAtrousPositionSigmaDirect: 0.5
    m_PVRFilteringAtrousPositionSigmaIndirect: 2
    m_PVRFilteringAtrousPositionSigmaAO: 1
    m_ExportTrainingData: 0
    m_TrainingDataDestination: TrainingData
    m_LightProbeSampleCountMultiplier: 4
  m_LightingDataAsset: {fileID: 0}
  m_LightingSettings: {fileID: 0}
--- !u!196 &4
NavMeshSettings:
  serializedVersion: 2
  m_ObjectHideFlags: 0
  m_BuildSettings:
    serializedVersion: 2
    agentTypeID: 0
    agentRadius: 0.5
    agentHeight: 2
    agentSlope: 45
    agentClimb: 0.4
    ledgeDropHeight: 0
    maxJumpAcrossDistance: 0
    minRegionArea: 2
    manualCellSize: 0
    cellSize: 0.16666667
    manualTileSize: 0
    tileSize: 256
    accuratePlacement: 0
    maxJobWorkers: 0
    preserveTilesOutsideBounds: 0
    debug:
      m_Flags: 0
  m_NavMeshData: {fileID: 23800000, guid: 2233c315741bcdf4f9433b3a4fa815c0, type: 2}
--- !u!1001 &273837585
PrefabInstance:
  m_ObjectHideFlags: 0
  serializedVersion: 2
  m_Modification:
    m_TransformParent: {fileID: 0}
    m_Modifications:
    - target: {fileID: 4667319255975652284, guid: 3eac5142da935ee4c8583fb2c40cbd3e, type: 3}
      propertyPath: m_Name
      value: Coin (2)
      objectReference: {fileID: 0}
    - target: {fileID: 4667319255975652285, guid: 3eac5142da935ee4c8583fb2c40cbd3e, type: 3}
      propertyPath: m_RootOrder
      value: 8
      objectReference: {fileID: 0}
    - target: {fileID: 4667319255975652285, guid: 3eac5142da935ee4c8583fb2c40cbd3e, type: 3}
      propertyPath: m_LocalPosition.x
      value: 162.20256
      objectReference: {fileID: 0}
    - target: {fileID: 4667319255975652285, guid: 3eac5142da935ee4c8583fb2c40cbd3e, type: 3}
      propertyPath: m_LocalPosition.y
      value: 7.07
      objectReference: {fileID: 0}
    - target: {fileID: 4667319255975652285, guid: 3eac5142da935ee4c8583fb2c40cbd3e, type: 3}
      propertyPath: m_LocalPosition.z
      value: 111.712616
      objectReference: {fileID: 0}
    - target: {fileID: 4667319255975652285, guid: 3eac5142da935ee4c8583fb2c40cbd3e, type: 3}
      propertyPath: m_LocalRotation.w
      value: 1
      objectReference: {fileID: 0}
    - target: {fileID: 4667319255975652285, guid: 3eac5142da935ee4c8583fb2c40cbd3e, type: 3}
      propertyPath: m_LocalRotation.x
      value: 0
      objectReference: {fileID: 0}
    - target: {fileID: 4667319255975652285, guid: 3eac5142da935ee4c8583fb2c40cbd3e, type: 3}
      propertyPath: m_LocalRotation.y
      value: 0
      objectReference: {fileID: 0}
    - target: {fileID: 4667319255975652285, guid: 3eac5142da935ee4c8583fb2c40cbd3e, type: 3}
      propertyPath: m_LocalRotation.z
      value: 0
      objectReference: {fileID: 0}
    - target: {fileID: 4667319255975652285, guid: 3eac5142da935ee4c8583fb2c40cbd3e, type: 3}
      propertyPath: m_LocalEulerAnglesHint.x
      value: 0
      objectReference: {fileID: 0}
    - target: {fileID: 4667319255975652285, guid: 3eac5142da935ee4c8583fb2c40cbd3e, type: 3}
      propertyPath: m_LocalEulerAnglesHint.y
      value: 0
      objectReference: {fileID: 0}
    - target: {fileID: 4667319255975652285, guid: 3eac5142da935ee4c8583fb2c40cbd3e, type: 3}
      propertyPath: m_LocalEulerAnglesHint.z
      value: 0
      objectReference: {fileID: 0}
    m_RemovedComponents: []
  m_SourcePrefab: {fileID: 100100000, guid: 3eac5142da935ee4c8583fb2c40cbd3e, type: 3}
--- !u!1001 &395137173
PrefabInstance:
  m_ObjectHideFlags: 0
  serializedVersion: 2
  m_Modification:
    m_TransformParent: {fileID: 0}
    m_Modifications:
    - target: {fileID: 4667319255975652284, guid: 3eac5142da935ee4c8583fb2c40cbd3e, type: 3}
      propertyPath: m_Name
      value: Coin (3)
      objectReference: {fileID: 0}
    - target: {fileID: 4667319255975652285, guid: 3eac5142da935ee4c8583fb2c40cbd3e, type: 3}
      propertyPath: m_RootOrder
      value: 7
      objectReference: {fileID: 0}
    - target: {fileID: 4667319255975652285, guid: 3eac5142da935ee4c8583fb2c40cbd3e, type: 3}
      propertyPath: m_LocalPosition.x
      value: 162.24
      objectReference: {fileID: 0}
    - target: {fileID: 4667319255975652285, guid: 3eac5142da935ee4c8583fb2c40cbd3e, type: 3}
      propertyPath: m_LocalPosition.y
      value: 6.7
      objectReference: {fileID: 0}
    - target: {fileID: 4667319255975652285, guid: 3eac5142da935ee4c8583fb2c40cbd3e, type: 3}
      propertyPath: m_LocalPosition.z
      value: 113.33
      objectReference: {fileID: 0}
    - target: {fileID: 4667319255975652285, guid: 3eac5142da935ee4c8583fb2c40cbd3e, type: 3}
      propertyPath: m_LocalRotation.w
      value: 1
      objectReference: {fileID: 0}
    - target: {fileID: 4667319255975652285, guid: 3eac5142da935ee4c8583fb2c40cbd3e, type: 3}
      propertyPath: m_LocalRotation.x
      value: 0
      objectReference: {fileID: 0}
    - target: {fileID: 4667319255975652285, guid: 3eac5142da935ee4c8583fb2c40cbd3e, type: 3}
      propertyPath: m_LocalRotation.y
      value: 0
      objectReference: {fileID: 0}
    - target: {fileID: 4667319255975652285, guid: 3eac5142da935ee4c8583fb2c40cbd3e, type: 3}
      propertyPath: m_LocalRotation.z
      value: 0
      objectReference: {fileID: 0}
    - target: {fileID: 4667319255975652285, guid: 3eac5142da935ee4c8583fb2c40cbd3e, type: 3}
      propertyPath: m_LocalEulerAnglesHint.x
      value: 0
      objectReference: {fileID: 0}
    - target: {fileID: 4667319255975652285, guid: 3eac5142da935ee4c8583fb2c40cbd3e, type: 3}
      propertyPath: m_LocalEulerAnglesHint.y
      value: 0
      objectReference: {fileID: 0}
    - target: {fileID: 4667319255975652285, guid: 3eac5142da935ee4c8583fb2c40cbd3e, type: 3}
      propertyPath: m_LocalEulerAnglesHint.z
      value: 0
      objectReference: {fileID: 0}
    m_RemovedComponents: []
  m_SourcePrefab: {fileID: 100100000, guid: 3eac5142da935ee4c8583fb2c40cbd3e, type: 3}
--- !u!1001 &698145949
PrefabInstance:
  m_ObjectHideFlags: 0
  serializedVersion: 2
  m_Modification:
    m_TransformParent: {fileID: 0}
    m_Modifications:
    - target: {fileID: 7415000569390407017, guid: b77c1deb73fdafb4eb1020ebf07b33d3, type: 3}
      propertyPath: m_Name
      value: zombiesTPose (3)
      objectReference: {fileID: 0}
    - target: {fileID: 7648860848845791290, guid: b77c1deb73fdafb4eb1020ebf07b33d3, type: 3}
      propertyPath: _player
      value: 
      objectReference: {fileID: 919132148804694801}
    - target: {fileID: 7902848778722723795, guid: b77c1deb73fdafb4eb1020ebf07b33d3, type: 3}
      propertyPath: m_RootOrder
      value: 2
      objectReference: {fileID: 0}
    - target: {fileID: 7902848778722723795, guid: b77c1deb73fdafb4eb1020ebf07b33d3, type: 3}
      propertyPath: m_LocalPosition.x
      value: 162.26
      objectReference: {fileID: 0}
    - target: {fileID: 7902848778722723795, guid: b77c1deb73fdafb4eb1020ebf07b33d3, type: 3}
      propertyPath: m_LocalPosition.y
      value: 5.896352
      objectReference: {fileID: 0}
    - target: {fileID: 7902848778722723795, guid: b77c1deb73fdafb4eb1020ebf07b33d3, type: 3}
      propertyPath: m_LocalPosition.z
      value: 128.5
      objectReference: {fileID: 0}
    - target: {fileID: 7902848778722723795, guid: b77c1deb73fdafb4eb1020ebf07b33d3, type: 3}
      propertyPath: m_LocalRotation.w
      value: 1
      objectReference: {fileID: 0}
    - target: {fileID: 7902848778722723795, guid: b77c1deb73fdafb4eb1020ebf07b33d3, type: 3}
      propertyPath: m_LocalRotation.x
      value: 0
      objectReference: {fileID: 0}
    - target: {fileID: 7902848778722723795, guid: b77c1deb73fdafb4eb1020ebf07b33d3, type: 3}
      propertyPath: m_LocalRotation.y
      value: 0
      objectReference: {fileID: 0}
    - target: {fileID: 7902848778722723795, guid: b77c1deb73fdafb4eb1020ebf07b33d3, type: 3}
      propertyPath: m_LocalRotation.z
      value: 0
      objectReference: {fileID: 0}
    - target: {fileID: 7902848778722723795, guid: b77c1deb73fdafb4eb1020ebf07b33d3, type: 3}
      propertyPath: m_LocalEulerAnglesHint.x
      value: 0
      objectReference: {fileID: 0}
    - target: {fileID: 7902848778722723795, guid: b77c1deb73fdafb4eb1020ebf07b33d3, type: 3}
      propertyPath: m_LocalEulerAnglesHint.y
      value: 0
      objectReference: {fileID: 0}
    - target: {fileID: 7902848778722723795, guid: b77c1deb73fdafb4eb1020ebf07b33d3, type: 3}
      propertyPath: m_LocalEulerAnglesHint.z
      value: 0
      objectReference: {fileID: 0}
    m_RemovedComponents: []
  m_SourcePrefab: {fileID: 100100000, guid: b77c1deb73fdafb4eb1020ebf07b33d3, type: 3}
--- !u!1 &705507993
GameObject:
  m_ObjectHideFlags: 0
  m_CorrespondingSourceObject: {fileID: 0}
  m_PrefabInstance: {fileID: 0}
  m_PrefabAsset: {fileID: 0}
  serializedVersion: 6
  m_Component:
  - component: {fileID: 705507995}
  - component: {fileID: 705507994}
  - component: {fileID: 705507996}
  m_Layer: 0
  m_Name: Directional Light
  m_TagString: Untagged
  m_Icon: {fileID: 0}
  m_NavMeshLayer: 0
  m_StaticEditorFlags: 0
  m_IsActive: 1
--- !u!108 &705507994
Light:
  m_ObjectHideFlags: 0
  m_CorrespondingSourceObject: {fileID: 0}
  m_PrefabInstance: {fileID: 0}
  m_PrefabAsset: {fileID: 0}
  m_GameObject: {fileID: 705507993}
  m_Enabled: 1
  serializedVersion: 10
  m_Type: 1
  m_Shape: 0
  m_Color: {r: 1, g: 0.8632076, b: 0.91659, a: 1}
  m_Intensity: 1
  m_Range: 10
  m_SpotAngle: 30
  m_InnerSpotAngle: 21.80208
  m_CookieSize: 10
  m_Shadows:
    m_Type: 1
    m_Resolution: -1
    m_CustomResolution: -1
    m_Strength: 1
    m_Bias: 0.05
    m_NormalBias: 0.4
    m_NearPlane: 0.2
    m_CullingMatrixOverride:
      e00: 1
      e01: 0
      e02: 0
      e03: 0
      e10: 0
      e11: 1
      e12: 0
      e13: 0
      e20: 0
      e21: 0
      e22: 1
      e23: 0
      e30: 0
      e31: 0
      e32: 0
      e33: 1
    m_UseCullingMatrixOverride: 0
  m_Cookie: {fileID: 0}
  m_DrawHalo: 0
  m_Flare: {fileID: 0}
  m_RenderMode: 0
  m_CullingMask:
    serializedVersion: 2
    m_Bits: 4294967295
  m_RenderingLayerMask: 1
  m_Lightmapping: 1
  m_LightShadowCasterMode: 0
  m_AreaSize: {x: 1, y: 1}
  m_BounceIntensity: 1
  m_ColorTemperature: 6570
  m_UseColorTemperature: 0
  m_BoundingSphereOverride: {x: 0, y: 0, z: 0, w: 0}
  m_UseBoundingSphereOverride: 0
  m_UseViewFrustumForShadowCasterCull: 1
  m_ShadowRadius: 0
  m_ShadowAngle: 0
--- !u!4 &705507995
Transform:
  m_ObjectHideFlags: 0
  m_CorrespondingSourceObject: {fileID: 0}
  m_PrefabInstance: {fileID: 0}
  m_PrefabAsset: {fileID: 0}
  m_GameObject: {fileID: 705507993}
  m_LocalRotation: {x: 0.40821788, y: -0.23456968, z: 0.10938163, w: 0.8754261}
  m_LocalPosition: {x: 0, y: 3, z: 0}
  m_LocalScale: {x: 1, y: 1, z: 1}
  m_ConstrainProportionsScale: 0
  m_Children: []
  m_Father: {fileID: 0}
  m_RootOrder: 0
  m_LocalEulerAnglesHint: {x: 50, y: -30, z: 0}
--- !u!114 &705507996
MonoBehaviour:
  m_ObjectHideFlags: 0
  m_CorrespondingSourceObject: {fileID: 0}
  m_PrefabInstance: {fileID: 0}
  m_PrefabAsset: {fileID: 0}
  m_GameObject: {fileID: 705507993}
  m_Enabled: 1
  m_EditorHideFlags: 0
  m_Script: {fileID: 11500000, guid: 474bcb49853aa07438625e644c072ee6, type: 3}
  m_Name: 
  m_EditorClassIdentifier: 
  m_Version: 1
  m_UsePipelineSettings: 1
  m_AdditionalLightsShadowResolutionTier: 2
  m_LightLayerMask: 1
  m_CustomShadowLayers: 0
  m_ShadowLayerMask: 1
  m_LightCookieSize: {x: 1, y: 1}
  m_LightCookieOffset: {x: 0, y: 0}
--- !u!1 &1036583754
GameObject:
  m_ObjectHideFlags: 0
  m_CorrespondingSourceObject: {fileID: 0}
  m_PrefabInstance: {fileID: 0}
  m_PrefabAsset: {fileID: 0}
  serializedVersion: 6
  m_Component:
  - component: {fileID: 1036583757}
  - component: {fileID: 1036583756}
  - component: {fileID: 1036583755}
  m_Layer: 0
  m_Name: Terrain
  m_TagString: Untagged
  m_Icon: {fileID: 0}
  m_NavMeshLayer: 0
  m_StaticEditorFlags: 2147483647
  m_IsActive: 1
--- !u!154 &1036583755
TerrainCollider:
  m_ObjectHideFlags: 0
  m_CorrespondingSourceObject: {fileID: 0}
  m_PrefabInstance: {fileID: 0}
  m_PrefabAsset: {fileID: 0}
  m_GameObject: {fileID: 1036583754}
  m_Material: {fileID: 0}
  m_Enabled: 1
  m_TerrainData: {fileID: 15600000, guid: 19ecbb3f9c1c5f0449e6390d1c7d9a15, type: 2}
  m_EnableTreeColliders: 1
--- !u!218 &1036583756
Terrain:
  m_ObjectHideFlags: 0
  m_CorrespondingSourceObject: {fileID: 0}
  m_PrefabInstance: {fileID: 0}
  m_PrefabAsset: {fileID: 0}
  m_GameObject: {fileID: 1036583754}
  m_Enabled: 1
  serializedVersion: 6
  m_TerrainData: {fileID: 15600000, guid: 19ecbb3f9c1c5f0449e6390d1c7d9a15, type: 2}
  m_TreeDistance: 5000
  m_TreeBillboardDistance: 50
  m_TreeCrossFadeLength: 5
  m_TreeMaximumFullLODCount: 50
  m_DetailObjectDistance: 80
  m_DetailObjectDensity: 1
  m_HeightmapPixelError: 5
  m_SplatMapDistance: 1000
  m_HeightmapMaximumLOD: 0
  m_ShadowCastingMode: 2
  m_DrawHeightmap: 1
  m_DrawInstanced: 0
  m_DrawTreesAndFoliage: 1
  m_StaticShadowCaster: 0
  m_ReflectionProbeUsage: 1
  m_MaterialTemplate: {fileID: 2100000, guid: 51e10f91b788c4f73a04e5241384564e, type: 2}
  m_BakeLightProbesForTrees: 1
  m_PreserveTreePrototypeLayers: 0
  m_DeringLightProbesForTrees: 1
  m_ScaleInLightmap: 0.0256
  m_LightmapParameters: {fileID: 15203, guid: 0000000000000000f000000000000000, type: 0}
  m_GroupingID: 0
  m_RenderingLayerMask: 1
  m_AllowAutoConnect: 1
--- !u!4 &1036583757
Transform:
  m_ObjectHideFlags: 0
  m_CorrespondingSourceObject: {fileID: 0}
  m_PrefabInstance: {fileID: 0}
  m_PrefabAsset: {fileID: 0}
  m_GameObject: {fileID: 1036583754}
  m_LocalRotation: {x: 0, y: 0, z: 0, w: 1}
  m_LocalPosition: {x: 0, y: 0, z: 0}
  m_LocalScale: {x: 1, y: 1, z: 1}
  m_ConstrainProportionsScale: 0
  m_Children: []
  m_Father: {fileID: 0}
  m_RootOrder: 12
  m_LocalEulerAnglesHint: {x: 0, y: 0, z: 0}
--- !u!1 &1333918128
GameObject:
  m_ObjectHideFlags: 0
  m_CorrespondingSourceObject: {fileID: 0}
  m_PrefabInstance: {fileID: 0}
  m_PrefabAsset: {fileID: 0}
  serializedVersion: 6
  m_Component:
  - component: {fileID: 1333918131}
  - component: {fileID: 1333918130}
  - component: {fileID: 1333918129}
  m_Layer: 0
  m_Name: EventSystem
  m_TagString: Untagged
  m_Icon: {fileID: 0}
  m_NavMeshLayer: 0
  m_StaticEditorFlags: 0
  m_IsActive: 1
--- !u!114 &1333918129
MonoBehaviour:
  m_ObjectHideFlags: 0
  m_CorrespondingSourceObject: {fileID: 0}
  m_PrefabInstance: {fileID: 0}
  m_PrefabAsset: {fileID: 0}
  m_GameObject: {fileID: 1333918128}
  m_Enabled: 1
  m_EditorHideFlags: 0
  m_Script: {fileID: 11500000, guid: 4f231c4fb786f3946a6b90b886c48677, type: 3}
  m_Name: 
  m_EditorClassIdentifier: 
  m_SendPointerHoverToParent: 1
  m_HorizontalAxis: Horizontal
  m_VerticalAxis: Vertical
  m_SubmitButton: Submit
  m_CancelButton: Cancel
  m_InputActionsPerSecond: 10
  m_RepeatDelay: 0.5
  m_ForceModuleActive: 0
--- !u!114 &1333918130
MonoBehaviour:
  m_ObjectHideFlags: 0
  m_CorrespondingSourceObject: {fileID: 0}
  m_PrefabInstance: {fileID: 0}
  m_PrefabAsset: {fileID: 0}
  m_GameObject: {fileID: 1333918128}
  m_Enabled: 1
  m_EditorHideFlags: 0
  m_Script: {fileID: 11500000, guid: 76c392e42b5098c458856cdf6ecaaaa1, type: 3}
  m_Name: 
  m_EditorClassIdentifier: 
  m_FirstSelected: {fileID: 0}
  m_sendNavigationEvents: 1
  m_DragThreshold: 10
--- !u!4 &1333918131
Transform:
  m_ObjectHideFlags: 0
  m_CorrespondingSourceObject: {fileID: 0}
  m_PrefabInstance: {fileID: 0}
  m_PrefabAsset: {fileID: 0}
  m_GameObject: {fileID: 1333918128}
  m_LocalRotation: {x: 0, y: 0, z: 0, w: 1}
  m_LocalPosition: {x: 0, y: 0, z: 0}
  m_LocalScale: {x: 1, y: 1, z: 1}
  m_ConstrainProportionsScale: 0
  m_Children: []
  m_Father: {fileID: 0}
  m_RootOrder: 13
  m_LocalEulerAnglesHint: {x: 0, y: 0, z: 0}
--- !u!1001 &1513785303
PrefabInstance:
  m_ObjectHideFlags: 0
  serializedVersion: 2
  m_Modification:
    m_TransformParent: {fileID: 0}
    m_Modifications:
    - target: {fileID: 7415000569390407017, guid: b77c1deb73fdafb4eb1020ebf07b33d3, type: 3}
      propertyPath: m_Name
      value: zombiesTPose (2)
      objectReference: {fileID: 0}
    - target: {fileID: 7648860848845791290, guid: b77c1deb73fdafb4eb1020ebf07b33d3, type: 3}
      propertyPath: _player
      value: 
      objectReference: {fileID: 919132148804694801}
    - target: {fileID: 7902848778722723795, guid: b77c1deb73fdafb4eb1020ebf07b33d3, type: 3}
      propertyPath: m_RootOrder
      value: 3
      objectReference: {fileID: 0}
    - target: {fileID: 7902848778722723795, guid: b77c1deb73fdafb4eb1020ebf07b33d3, type: 3}
      propertyPath: m_LocalPosition.x
      value: 162.1849
      objectReference: {fileID: 0}
    - target: {fileID: 7902848778722723795, guid: b77c1deb73fdafb4eb1020ebf07b33d3, type: 3}
      propertyPath: m_LocalPosition.y
      value: 5.8963547
      objectReference: {fileID: 0}
    - target: {fileID: 7902848778722723795, guid: b77c1deb73fdafb4eb1020ebf07b33d3, type: 3}
      propertyPath: m_LocalPosition.z
      value: 124.142334
      objectReference: {fileID: 0}
    - target: {fileID: 7902848778722723795, guid: b77c1deb73fdafb4eb1020ebf07b33d3, type: 3}
      propertyPath: m_LocalRotation.w
      value: 1
      objectReference: {fileID: 0}
    - target: {fileID: 7902848778722723795, guid: b77c1deb73fdafb4eb1020ebf07b33d3, type: 3}
      propertyPath: m_LocalRotation.x
      value: 0
      objectReference: {fileID: 0}
    - target: {fileID: 7902848778722723795, guid: b77c1deb73fdafb4eb1020ebf07b33d3, type: 3}
      propertyPath: m_LocalRotation.y
      value: 0
      objectReference: {fileID: 0}
    - target: {fileID: 7902848778722723795, guid: b77c1deb73fdafb4eb1020ebf07b33d3, type: 3}
      propertyPath: m_LocalRotation.z
      value: 0
      objectReference: {fileID: 0}
    - target: {fileID: 7902848778722723795, guid: b77c1deb73fdafb4eb1020ebf07b33d3, type: 3}
      propertyPath: m_LocalEulerAnglesHint.x
      value: 0
      objectReference: {fileID: 0}
    - target: {fileID: 7902848778722723795, guid: b77c1deb73fdafb4eb1020ebf07b33d3, type: 3}
      propertyPath: m_LocalEulerAnglesHint.y
      value: 0
      objectReference: {fileID: 0}
    - target: {fileID: 7902848778722723795, guid: b77c1deb73fdafb4eb1020ebf07b33d3, type: 3}
      propertyPath: m_LocalEulerAnglesHint.z
      value: 0
      objectReference: {fileID: 0}
    m_RemovedComponents: []
  m_SourcePrefab: {fileID: 100100000, guid: b77c1deb73fdafb4eb1020ebf07b33d3, type: 3}
--- !u!1001 &1591718219
PrefabInstance:
  m_ObjectHideFlags: 0
  serializedVersion: 2
  m_Modification:
    m_TransformParent: {fileID: 0}
    m_Modifications:
    - target: {fileID: 4667319255975652284, guid: 3eac5142da935ee4c8583fb2c40cbd3e, type: 3}
      propertyPath: m_Name
      value: Coin (4)
      objectReference: {fileID: 0}
    - target: {fileID: 4667319255975652285, guid: 3eac5142da935ee4c8583fb2c40cbd3e, type: 3}
      propertyPath: m_RootOrder
      value: 6
      objectReference: {fileID: 0}
    - target: {fileID: 4667319255975652285, guid: 3eac5142da935ee4c8583fb2c40cbd3e, type: 3}
      propertyPath: m_LocalPosition.x
      value: 162.48
      objectReference: {fileID: 0}
    - target: {fileID: 4667319255975652285, guid: 3eac5142da935ee4c8583fb2c40cbd3e, type: 3}
      propertyPath: m_LocalPosition.y
      value: 6.51
      objectReference: {fileID: 0}
    - target: {fileID: 4667319255975652285, guid: 3eac5142da935ee4c8583fb2c40cbd3e, type: 3}
      propertyPath: m_LocalPosition.z
      value: 131.27702
      objectReference: {fileID: 0}
    - target: {fileID: 4667319255975652285, guid: 3eac5142da935ee4c8583fb2c40cbd3e, type: 3}
      propertyPath: m_LocalRotation.w
      value: 1
      objectReference: {fileID: 0}
    - target: {fileID: 4667319255975652285, guid: 3eac5142da935ee4c8583fb2c40cbd3e, type: 3}
      propertyPath: m_LocalRotation.x
      value: 0
      objectReference: {fileID: 0}
    - target: {fileID: 4667319255975652285, guid: 3eac5142da935ee4c8583fb2c40cbd3e, type: 3}
      propertyPath: m_LocalRotation.y
      value: 0
      objectReference: {fileID: 0}
    - target: {fileID: 4667319255975652285, guid: 3eac5142da935ee4c8583fb2c40cbd3e, type: 3}
      propertyPath: m_LocalRotation.z
      value: 0
      objectReference: {fileID: 0}
    - target: {fileID: 4667319255975652285, guid: 3eac5142da935ee4c8583fb2c40cbd3e, type: 3}
      propertyPath: m_LocalEulerAnglesHint.x
      value: 0
      objectReference: {fileID: 0}
    - target: {fileID: 4667319255975652285, guid: 3eac5142da935ee4c8583fb2c40cbd3e, type: 3}
      propertyPath: m_LocalEulerAnglesHint.y
      value: 0
      objectReference: {fileID: 0}
    - target: {fileID: 4667319255975652285, guid: 3eac5142da935ee4c8583fb2c40cbd3e, type: 3}
      propertyPath: m_LocalEulerAnglesHint.z
      value: 0
      objectReference: {fileID: 0}
    m_RemovedComponents: []
  m_SourcePrefab: {fileID: 100100000, guid: 3eac5142da935ee4c8583fb2c40cbd3e, type: 3}
--- !u!1001 &1709845158
PrefabInstance:
  m_ObjectHideFlags: 0
  serializedVersion: 2
  m_Modification:
    m_TransformParent: {fileID: 0}
    m_Modifications:
    - target: {fileID: 7415000569390407017, guid: b77c1deb73fdafb4eb1020ebf07b33d3, type: 3}
      propertyPath: m_Name
      value: zombiesTPose (4)
      objectReference: {fileID: 0}
    - target: {fileID: 7648860848845791290, guid: b77c1deb73fdafb4eb1020ebf07b33d3, type: 3}
      propertyPath: _player
      value: 
      objectReference: {fileID: 919132148804694801}
    - target: {fileID: 7902848778722723795, guid: b77c1deb73fdafb4eb1020ebf07b33d3, type: 3}
      propertyPath: m_RootOrder
      value: 1
      objectReference: {fileID: 0}
    - target: {fileID: 7902848778722723795, guid: b77c1deb73fdafb4eb1020ebf07b33d3, type: 3}
      propertyPath: m_LocalPosition.x
      value: 162.3
      objectReference: {fileID: 0}
    - target: {fileID: 7902848778722723795, guid: b77c1deb73fdafb4eb1020ebf07b33d3, type: 3}
      propertyPath: m_LocalPosition.y
      value: 5.89636
      objectReference: {fileID: 0}
    - target: {fileID: 7902848778722723795, guid: b77c1deb73fdafb4eb1020ebf07b33d3, type: 3}
      propertyPath: m_LocalPosition.z
      value: 136.95694
      objectReference: {fileID: 0}
    - target: {fileID: 7902848778722723795, guid: b77c1deb73fdafb4eb1020ebf07b33d3, type: 3}
      propertyPath: m_LocalRotation.w
      value: 1
      objectReference: {fileID: 0}
    - target: {fileID: 7902848778722723795, guid: b77c1deb73fdafb4eb1020ebf07b33d3, type: 3}
      propertyPath: m_LocalRotation.x
      value: 0
      objectReference: {fileID: 0}
    - target: {fileID: 7902848778722723795, guid: b77c1deb73fdafb4eb1020ebf07b33d3, type: 3}
      propertyPath: m_LocalRotation.y
      value: 0
      objectReference: {fileID: 0}
    - target: {fileID: 7902848778722723795, guid: b77c1deb73fdafb4eb1020ebf07b33d3, type: 3}
      propertyPath: m_LocalRotation.z
      value: 0
      objectReference: {fileID: 0}
    - target: {fileID: 7902848778722723795, guid: b77c1deb73fdafb4eb1020ebf07b33d3, type: 3}
      propertyPath: m_LocalEulerAnglesHint.x
      value: 0
      objectReference: {fileID: 0}
    - target: {fileID: 7902848778722723795, guid: b77c1deb73fdafb4eb1020ebf07b33d3, type: 3}
      propertyPath: m_LocalEulerAnglesHint.y
      value: 0
      objectReference: {fileID: 0}
    - target: {fileID: 7902848778722723795, guid: b77c1deb73fdafb4eb1020ebf07b33d3, type: 3}
      propertyPath: m_LocalEulerAnglesHint.z
      value: 0
      objectReference: {fileID: 0}
    m_RemovedComponents: []
  m_SourcePrefab: {fileID: 100100000, guid: b77c1deb73fdafb4eb1020ebf07b33d3, type: 3}
--- !u!1001 &1711005352
PrefabInstance:
  m_ObjectHideFlags: 0
  serializedVersion: 2
  m_Modification:
    m_TransformParent: {fileID: 0}
    m_Modifications:
    - target: {fileID: 7415000569390407017, guid: b77c1deb73fdafb4eb1020ebf07b33d3, type: 3}
      propertyPath: m_Name
      value: zombiesTPose (1)
      objectReference: {fileID: 0}
    - target: {fileID: 7648860848845791290, guid: b77c1deb73fdafb4eb1020ebf07b33d3, type: 3}
      propertyPath: _player
      value: 
      objectReference: {fileID: 919132148804694801}
    - target: {fileID: 7902848778722723795, guid: b77c1deb73fdafb4eb1020ebf07b33d3, type: 3}
      propertyPath: m_RootOrder
      value: 4
      objectReference: {fileID: 0}
    - target: {fileID: 7902848778722723795, guid: b77c1deb73fdafb4eb1020ebf07b33d3, type: 3}
      propertyPath: m_LocalPosition.x
      value: 162.17
      objectReference: {fileID: 0}
    - target: {fileID: 7902848778722723795, guid: b77c1deb73fdafb4eb1020ebf07b33d3, type: 3}
      propertyPath: m_LocalPosition.y
      value: 5.896357
      objectReference: {fileID: 0}
    - target: {fileID: 7902848778722723795, guid: b77c1deb73fdafb4eb1020ebf07b33d3, type: 3}
      propertyPath: m_LocalPosition.z
      value: 120.19161
      objectReference: {fileID: 0}
    - target: {fileID: 7902848778722723795, guid: b77c1deb73fdafb4eb1020ebf07b33d3, type: 3}
      propertyPath: m_LocalRotation.w
      value: 1
      objectReference: {fileID: 0}
    - target: {fileID: 7902848778722723795, guid: b77c1deb73fdafb4eb1020ebf07b33d3, type: 3}
      propertyPath: m_LocalRotation.x
      value: 0
      objectReference: {fileID: 0}
    - target: {fileID: 7902848778722723795, guid: b77c1deb73fdafb4eb1020ebf07b33d3, type: 3}
      propertyPath: m_LocalRotation.y
      value: 0
      objectReference: {fileID: 0}
    - target: {fileID: 7902848778722723795, guid: b77c1deb73fdafb4eb1020ebf07b33d3, type: 3}
      propertyPath: m_LocalRotation.z
      value: 0
      objectReference: {fileID: 0}
    - target: {fileID: 7902848778722723795, guid: b77c1deb73fdafb4eb1020ebf07b33d3, type: 3}
      propertyPath: m_LocalEulerAnglesHint.x
      value: 0
      objectReference: {fileID: 0}
    - target: {fileID: 7902848778722723795, guid: b77c1deb73fdafb4eb1020ebf07b33d3, type: 3}
      propertyPath: m_LocalEulerAnglesHint.y
      value: 0
      objectReference: {fileID: 0}
    - target: {fileID: 7902848778722723795, guid: b77c1deb73fdafb4eb1020ebf07b33d3, type: 3}
      propertyPath: m_LocalEulerAnglesHint.z
      value: 0
      objectReference: {fileID: 0}
    m_RemovedComponents: []
  m_SourcePrefab: {fileID: 100100000, guid: b77c1deb73fdafb4eb1020ebf07b33d3, type: 3}
--- !u!1001 &1712054858
PrefabInstance:
  m_ObjectHideFlags: 0
  serializedVersion: 2
  m_Modification:
    m_TransformParent: {fileID: 0}
    m_Modifications:
    - target: {fileID: 4667319255975652284, guid: 3eac5142da935ee4c8583fb2c40cbd3e, type: 3}
      propertyPath: m_Name
      value: Coin (1)
      objectReference: {fileID: 0}
    - target: {fileID: 4667319255975652285, guid: 3eac5142da935ee4c8583fb2c40cbd3e, type: 3}
      propertyPath: m_RootOrder
      value: 9
      objectReference: {fileID: 0}
    - target: {fileID: 4667319255975652285, guid: 3eac5142da935ee4c8583fb2c40cbd3e, type: 3}
      propertyPath: m_LocalPosition.x
      value: 162.28
      objectReference: {fileID: 0}
    - target: {fileID: 4667319255975652285, guid: 3eac5142da935ee4c8583fb2c40cbd3e, type: 3}
      propertyPath: m_LocalPosition.y
      value: 6.63
      objectReference: {fileID: 0}
    - target: {fileID: 4667319255975652285, guid: 3eac5142da935ee4c8583fb2c40cbd3e, type: 3}
      propertyPath: m_LocalPosition.z
      value: 110.03937
      objectReference: {fileID: 0}
    - target: {fileID: 4667319255975652285, guid: 3eac5142da935ee4c8583fb2c40cbd3e, type: 3}
      propertyPath: m_LocalRotation.w
      value: 1
      objectReference: {fileID: 0}
    - target: {fileID: 4667319255975652285, guid: 3eac5142da935ee4c8583fb2c40cbd3e, type: 3}
      propertyPath: m_LocalRotation.x
      value: 0
      objectReference: {fileID: 0}
    - target: {fileID: 4667319255975652285, guid: 3eac5142da935ee4c8583fb2c40cbd3e, type: 3}
      propertyPath: m_LocalRotation.y
      value: 0
      objectReference: {fileID: 0}
    - target: {fileID: 4667319255975652285, guid: 3eac5142da935ee4c8583fb2c40cbd3e, type: 3}
      propertyPath: m_LocalRotation.z
      value: 0
      objectReference: {fileID: 0}
    - target: {fileID: 4667319255975652285, guid: 3eac5142da935ee4c8583fb2c40cbd3e, type: 3}
      propertyPath: m_LocalEulerAnglesHint.x
      value: 0
      objectReference: {fileID: 0}
    - target: {fileID: 4667319255975652285, guid: 3eac5142da935ee4c8583fb2c40cbd3e, type: 3}
      propertyPath: m_LocalEulerAnglesHint.y
      value: 0
      objectReference: {fileID: 0}
    - target: {fileID: 4667319255975652285, guid: 3eac5142da935ee4c8583fb2c40cbd3e, type: 3}
      propertyPath: m_LocalEulerAnglesHint.z
      value: 0
      objectReference: {fileID: 0}
    m_RemovedComponents: []
  m_SourcePrefab: {fileID: 100100000, guid: 3eac5142da935ee4c8583fb2c40cbd3e, type: 3}
--- !u!1001 &1801461235
PrefabInstance:
  m_ObjectHideFlags: 0
  serializedVersion: 2
  m_Modification:
    m_TransformParent: {fileID: 0}
    m_Modifications:
    - target: {fileID: 4667319255975652284, guid: 3eac5142da935ee4c8583fb2c40cbd3e, type: 3}
      propertyPath: m_Name
      value: Coin (5)
      objectReference: {fileID: 0}
    - target: {fileID: 4667319255975652285, guid: 3eac5142da935ee4c8583fb2c40cbd3e, type: 3}
      propertyPath: m_RootOrder
      value: 5
      objectReference: {fileID: 0}
    - target: {fileID: 4667319255975652285, guid: 3eac5142da935ee4c8583fb2c40cbd3e, type: 3}
      propertyPath: m_LocalPosition.x
      value: 162.48454
      objectReference: {fileID: 0}
    - target: {fileID: 4667319255975652285, guid: 3eac5142da935ee4c8583fb2c40cbd3e, type: 3}
      propertyPath: m_LocalPosition.y
      value: 6.54
      objectReference: {fileID: 0}
    - target: {fileID: 4667319255975652285, guid: 3eac5142da935ee4c8583fb2c40cbd3e, type: 3}
      propertyPath: m_LocalPosition.z
      value: 138.83342
      objectReference: {fileID: 0}
    - target: {fileID: 4667319255975652285, guid: 3eac5142da935ee4c8583fb2c40cbd3e, type: 3}
      propertyPath: m_LocalRotation.w
      value: 1
      objectReference: {fileID: 0}
    - target: {fileID: 4667319255975652285, guid: 3eac5142da935ee4c8583fb2c40cbd3e, type: 3}
      propertyPath: m_LocalRotation.x
      value: 0
      objectReference: {fileID: 0}
    - target: {fileID: 4667319255975652285, guid: 3eac5142da935ee4c8583fb2c40cbd3e, type: 3}
      propertyPath: m_LocalRotation.y
      value: 0
      objectReference: {fileID: 0}
    - target: {fileID: 4667319255975652285, guid: 3eac5142da935ee4c8583fb2c40cbd3e, type: 3}
      propertyPath: m_LocalRotation.z
      value: 0
      objectReference: {fileID: 0}
    - target: {fileID: 4667319255975652285, guid: 3eac5142da935ee4c8583fb2c40cbd3e, type: 3}
      propertyPath: m_LocalEulerAnglesHint.x
      value: 0
      objectReference: {fileID: 0}
    - target: {fileID: 4667319255975652285, guid: 3eac5142da935ee4c8583fb2c40cbd3e, type: 3}
      propertyPath: m_LocalEulerAnglesHint.y
      value: 0
      objectReference: {fileID: 0}
    - target: {fileID: 4667319255975652285, guid: 3eac5142da935ee4c8583fb2c40cbd3e, type: 3}
      propertyPath: m_LocalEulerAnglesHint.z
      value: 0
      objectReference: {fileID: 0}
    m_RemovedComponents: []
  m_SourcePrefab: {fileID: 100100000, guid: 3eac5142da935ee4c8583fb2c40cbd3e, type: 3}
--- !u!1 &919132148804694801 stripped
GameObject:
  m_CorrespondingSourceObject: {fileID: 4227240220004627275, guid: 85b61f0f31d7d4ca1b36a266ce9bc68e, type: 3}
  m_PrefabInstance: {fileID: 3921304061109567578}
  m_PrefabAsset: {fileID: 0}
--- !u!1001 &3921304061109567578
PrefabInstance:
  m_ObjectHideFlags: 0
  serializedVersion: 2
  m_Modification:
    m_TransformParent: {fileID: 0}
    m_Modifications:
    - target: {fileID: 2106995272476094241, guid: 85b61f0f31d7d4ca1b36a266ce9bc68e, type: 3}
      propertyPath: m_Name
      value: Player
      objectReference: {fileID: 0}
    - target: {fileID: 2360099328062080226, guid: 85b61f0f31d7d4ca1b36a266ce9bc68e, type: 3}
      propertyPath: m_RootOrder
      value: 14
      objectReference: {fileID: 0}
    - target: {fileID: 2360099328062080226, guid: 85b61f0f31d7d4ca1b36a266ce9bc68e, type: 3}
      propertyPath: m_LocalPosition.x
      value: 230.89333
      objectReference: {fileID: 0}
    - target: {fileID: 2360099328062080226, guid: 85b61f0f31d7d4ca1b36a266ce9bc68e, type: 3}
      propertyPath: m_LocalPosition.y
      value: 45.50656
      objectReference: {fileID: 0}
    - target: {fileID: 2360099328062080226, guid: 85b61f0f31d7d4ca1b36a266ce9bc68e, type: 3}
      propertyPath: m_LocalPosition.z
      value: 126.73388
      objectReference: {fileID: 0}
    - target: {fileID: 2360099328062080226, guid: 85b61f0f31d7d4ca1b36a266ce9bc68e, type: 3}
      propertyPath: m_LocalRotation.w
      value: 1
      objectReference: {fileID: 0}
    - target: {fileID: 2360099328062080226, guid: 85b61f0f31d7d4ca1b36a266ce9bc68e, type: 3}
      propertyPath: m_LocalRotation.x
      value: 0
      objectReference: {fileID: 0}
    - target: {fileID: 2360099328062080226, guid: 85b61f0f31d7d4ca1b36a266ce9bc68e, type: 3}
      propertyPath: m_LocalRotation.y
      value: 0
      objectReference: {fileID: 0}
    - target: {fileID: 2360099328062080226, guid: 85b61f0f31d7d4ca1b36a266ce9bc68e, type: 3}
      propertyPath: m_LocalRotation.z
      value: 0
      objectReference: {fileID: 0}
    - target: {fileID: 2360099328062080226, guid: 85b61f0f31d7d4ca1b36a266ce9bc68e, type: 3}
      propertyPath: m_LocalEulerAnglesHint.x
      value: 0
      objectReference: {fileID: 0}
    - target: {fileID: 2360099328062080226, guid: 85b61f0f31d7d4ca1b36a266ce9bc68e, type: 3}
      propertyPath: m_LocalEulerAnglesHint.y
      value: 0
      objectReference: {fileID: 0}
    - target: {fileID: 2360099328062080226, guid: 85b61f0f31d7d4ca1b36a266ce9bc68e, type: 3}
      propertyPath: m_LocalEulerAnglesHint.z
      value: 0
      objectReference: {fileID: 0}
    - target: {fileID: 3921304061765920663, guid: 85b61f0f31d7d4ca1b36a266ce9bc68e, type: 3}
      propertyPath: m_AnchorMax.y
      value: 0
      objectReference: {fileID: 0}
    m_RemovedComponents: []
  m_SourcePrefab: {fileID: 100100000, guid: 85b61f0f31d7d4ca1b36a266ce9bc68e, type: 3}
--- !u!1001 &4667319256175112872
PrefabInstance:
  m_ObjectHideFlags: 0
  serializedVersion: 2
  m_Modification:
    m_TransformParent: {fileID: 0}
    m_Modifications:
    - target: {fileID: 4667319255975652284, guid: 3eac5142da935ee4c8583fb2c40cbd3e, type: 3}
      propertyPath: m_Name
      value: Coin
      objectReference: {fileID: 0}
    - target: {fileID: 4667319255975652285, guid: 3eac5142da935ee4c8583fb2c40cbd3e, type: 3}
      propertyPath: m_RootOrder
      value: 10
      objectReference: {fileID: 0}
    - target: {fileID: 4667319255975652285, guid: 3eac5142da935ee4c8583fb2c40cbd3e, type: 3}
      propertyPath: m_LocalPosition.x
      value: 162.23
      objectReference: {fileID: 0}
    - target: {fileID: 4667319255975652285, guid: 3eac5142da935ee4c8583fb2c40cbd3e, type: 3}
      propertyPath: m_LocalPosition.y
      value: 6.7732806
      objectReference: {fileID: 0}
    - target: {fileID: 4667319255975652285, guid: 3eac5142da935ee4c8583fb2c40cbd3e, type: 3}
      propertyPath: m_LocalPosition.z
      value: 115.22
      objectReference: {fileID: 0}
    - target: {fileID: 4667319255975652285, guid: 3eac5142da935ee4c8583fb2c40cbd3e, type: 3}
      propertyPath: m_LocalRotation.w
      value: 1
      objectReference: {fileID: 0}
    - target: {fileID: 4667319255975652285, guid: 3eac5142da935ee4c8583fb2c40cbd3e, type: 3}
      propertyPath: m_LocalRotation.x
      value: 0
      objectReference: {fileID: 0}
    - target: {fileID: 4667319255975652285, guid: 3eac5142da935ee4c8583fb2c40cbd3e, type: 3}
      propertyPath: m_LocalRotation.y
      value: 0
      objectReference: {fileID: 0}
    - target: {fileID: 4667319255975652285, guid: 3eac5142da935ee4c8583fb2c40cbd3e, type: 3}
      propertyPath: m_LocalRotation.z
      value: 0
      objectReference: {fileID: 0}
    - target: {fileID: 4667319255975652285, guid: 3eac5142da935ee4c8583fb2c40cbd3e, type: 3}
      propertyPath: m_LocalEulerAnglesHint.x
      value: 0
      objectReference: {fileID: 0}
    - target: {fileID: 4667319255975652285, guid: 3eac5142da935ee4c8583fb2c40cbd3e, type: 3}
      propertyPath: m_LocalEulerAnglesHint.y
      value: 0
      objectReference: {fileID: 0}
    - target: {fileID: 4667319255975652285, guid: 3eac5142da935ee4c8583fb2c40cbd3e, type: 3}
      propertyPath: m_LocalEulerAnglesHint.z
      value: 0
      objectReference: {fileID: 0}
    m_RemovedComponents: []
  m_SourcePrefab: {fileID: 100100000, guid: 3eac5142da935ee4c8583fb2c40cbd3e, type: 3}
--- !u!1001 &7648860849101046105
PrefabInstance:
  m_ObjectHideFlags: 0
  serializedVersion: 2
  m_Modification:
    m_TransformParent: {fileID: 0}
    m_Modifications:
    - target: {fileID: 7415000569390407017, guid: b77c1deb73fdafb4eb1020ebf07b33d3, type: 3}
      propertyPath: m_Name
      value: zombiesTPose
      objectReference: {fileID: 0}
    - target: {fileID: 7648860848845791290, guid: b77c1deb73fdafb4eb1020ebf07b33d3, type: 3}
      propertyPath: _player
      value: 
      objectReference: {fileID: 919132148804694801}
    - target: {fileID: 7902848778722723795, guid: b77c1deb73fdafb4eb1020ebf07b33d3, type: 3}
      propertyPath: m_RootOrder
      value: 11
      objectReference: {fileID: 0}
    - target: {fileID: 7902848778722723795, guid: b77c1deb73fdafb4eb1020ebf07b33d3, type: 3}
      propertyPath: m_LocalPosition.x
      value: 162.11774
      objectReference: {fileID: 0}
    - target: {fileID: 7902848778722723795, guid: b77c1deb73fdafb4eb1020ebf07b33d3, type: 3}
      propertyPath: m_LocalPosition.y
      value: 5.896363
      objectReference: {fileID: 0}
    - target: {fileID: 7902848778722723795, guid: b77c1deb73fdafb4eb1020ebf07b33d3, type: 3}
      propertyPath: m_LocalPosition.z
      value: 117.246284
      objectReference: {fileID: 0}
    - target: {fileID: 7902848778722723795, guid: b77c1deb73fdafb4eb1020ebf07b33d3, type: 3}
      propertyPath: m_LocalRotation.w
      value: 1
      objectReference: {fileID: 0}
    - target: {fileID: 7902848778722723795, guid: b77c1deb73fdafb4eb1020ebf07b33d3, type: 3}
      propertyPath: m_LocalRotation.x
      value: 0
      objectReference: {fileID: 0}
    - target: {fileID: 7902848778722723795, guid: b77c1deb73fdafb4eb1020ebf07b33d3, type: 3}
      propertyPath: m_LocalRotation.y
      value: 0
      objectReference: {fileID: 0}
    - target: {fileID: 7902848778722723795, guid: b77c1deb73fdafb4eb1020ebf07b33d3, type: 3}
      propertyPath: m_LocalRotation.z
      value: 0
      objectReference: {fileID: 0}
    - target: {fileID: 7902848778722723795, guid: b77c1deb73fdafb4eb1020ebf07b33d3, type: 3}
      propertyPath: m_LocalEulerAnglesHint.x
      value: 0
      objectReference: {fileID: 0}
    - target: {fileID: 7902848778722723795, guid: b77c1deb73fdafb4eb1020ebf07b33d3, type: 3}
      propertyPath: m_LocalEulerAnglesHint.y
      value: 0
      objectReference: {fileID: 0}
    - target: {fileID: 7902848778722723795, guid: b77c1deb73fdafb4eb1020ebf07b33d3, type: 3}
      propertyPath: m_LocalEulerAnglesHint.z
      value: 0
      objectReference: {fileID: 0}
    m_RemovedComponents: []
  m_SourcePrefab: {fileID: 100100000, guid: b77c1deb73fdafb4eb1020ebf07b33d3, type: 3}
